<robot xmlns:xacro="http://ros.org/wiki/xacro" name="turtlebot3_waffle_pi_for_open_manipulator">
  <xacro:include filename="$(find turtlebot3_description)/urdf/common_properties.xacro" />
  <xacro:include filename="$(find turtlebot3_description)/urdf/turtlebot3_waffle_pi.gazebo.xacro" />

  <link name="base_footprint" />

  <joint name="base_joint" type="fixed">
    <parent link="base_footprint" />
    <child link="base_link" />
    <origin rpy="0 0 0" xyz="0 0 0.010" />
  </joint>

  <link name="base_link">
    <visual>
      <origin rpy="0 0 0" xyz="-0.064 0 0.0" />
      <geometry>
        <mesh filename="package://turtlebot3_description/meshes/bases/waffle_pi_base_for_open_manipulator.stl" scale="0.001 0.001 0.001" />
      </geometry>
      <material name="light_black" />
    </visual>

    <collision>
      <origin rpy="0 0 0" xyz="-0.064 0 0.047" />
      <geometry>
        <box size="0.266 0.266 0.094" />
      </geometry>
    </collision>

    <inertial>
      <origin rpy="0 0 0" xyz="0 0 0" />
      <mass value="1.3729096e+00" />
      <inertia ixx="8.7002718e-03" ixy="-4.7576583e-05" ixz="1.1160499e-04" iyy="8.6195418e-03" iyz="-3.5422299e-06" izz="1.4612727e-02" />
    </inertial>
  </link>

  <joint name="wheel_left_joint" type="continuous">
    <parent link="base_link" />
    <child link="wheel_left_link" />
    <origin rpy="-1.57 0 0" xyz="0.0 0.144 0.023" />
    <axis xyz="0 0 1" />
  </joint>

  <link name="wheel_left_link">
    <visual>
      <origin rpy="1.57 0 0" xyz="0 0 0" />
      <geometry>
        <mesh filename="package://turtlebot3_description/meshes/wheels/left_tire.stl" scale="0.001 0.001 0.001" />
      </geometry>
      <material name="dark" />
    </visual>

    <collision>
      <origin rpy="0 0 0" xyz="0 0 0" />
      <geometry>
        <cylinder length="0.018" radius="0.033" />
      </geometry>
    </collision>

    <inertial>
      <origin xyz="0 0 0" />
      <mass value="2.8498940e-02" />
      <inertia ixx="1.1175580e-05" ixy="-4.2369783e-11" ixz="-5.9381719e-09" iyy="1.1192413e-05" iyz="-1.4400107e-11" izz="2.0712558e-05" />
      </inertial>
  </link>

  <joint name="wheel_right_joint" type="continuous">
    <parent link="base_link" />
    <child link="wheel_right_link" />
    <origin rpy="-1.57 0 0" xyz="0.0 -0.144 0.023" />
    <axis xyz="0 0 1" />
  </joint>

  <link name="wheel_right_link">
    <visual>
      <origin rpy="1.57 0 0" xyz="0 0 0" />
      <geometry>
        <mesh filename="package://turtlebot3_description/meshes/wheels/right_tire.stl" scale="0.001 0.001 0.001" />
      </geometry>
      <material name="dark" />
    </visual>

    <collision>
      <origin rpy="0 0 0" xyz="0 0.001 0" />
      <geometry>
        <cylinder length="0.018" radius="0.033" />
      </geometry>
    </collision>

    <inertial>
      <origin xyz="0 0 0" />
      <mass value="2.8498940e-02" />
      <inertia ixx="1.1175580e-05" ixy="-4.2369783e-11" ixz="-5.9381719e-09" iyy="1.1192413e-05" iyz="-1.4400107e-11" izz="2.0712558e-05" />
      </inertial>
  </link>

  <joint name="caster_back_right_joint" type="fixed">
    <parent link="base_link" />
    <child link="caster_back_right_link" />
    <origin rpy="-1.57 0 0" xyz="-0.177 -0.064 -0.004" />
  </joint>

  <link name="caster_back_right_link">
    <collision>
      <origin rpy="0 0 0" xyz="0 0.001 0" />
      <geometry>
        <box size="0.030 0.009 0.020" />
      </geometry>
    </collision>

    <inertial>
      <origin xyz="0 0 0" />
      <mass value="0.005" />
      <inertia ixx="0.001" ixy="0.0" ixz="0.0" iyy="0.001" iyz="0.0" izz="0.001" />
    </inertial>
  </link>

  <joint name="caster_back_left_joint" type="fixed">
    <parent link="base_link" />
    <child link="caster_back_left_link" />
    <origin rpy="-1.57 0 0" xyz="-0.177 0.064 -0.004" />
  </joint>

  <link name="caster_back_left_link">
    <collision>
      <origin rpy="0 0 0" xyz="0 0.001 0" />
      <geometry>
        <box size="0.030 0.009 0.020" />
      </geometry>
    </collision>

    <inertial>
      <origin xyz="0 0 0" />
      <mass value="0.005" />
      <inertia ixx="0.001" ixy="0.0" ixz="0.0" iyy="0.001" iyz="0.0" izz="0.001" />
    </inertial>
  </link>

  <joint name="imu_joint" type="fixed">
    <parent link="base_link" />
    <child link="imu_link" />
    <origin rpy="0 0 0" xyz="0.0 0 0.068" />
  </joint>

  <link name="imu_link" />

  <joint name="scan_joint" type="fixed">
    <parent link="base_link" />
    <child link="base_scan" />
    <origin rpy="0 0 0" xyz="-0.024 0 0.122" /> 
  </joint>

  <link name="base_scan">
    <visual>
      <origin rpy="0 0 0" xyz="0 0 0.0" />
      <geometry>
        <mesh filename="package://turtlebot3_description/meshes/sensors/lds.stl" scale="0.001 0.001 0.001" />
      </geometry>
      <material name="dark" />
    </visual>

    <collision>
      <origin rpy="0 0 0" xyz="0.015 0 -0.0065" />
      <geometry>
        <cylinder length="0.0315" radius="0.045" />
      </geometry>
    </collision>

    <inertial>
      <mass value="0.114" />
      <origin xyz="0 0 0" />
      <inertia ixx="0.001" ixy="0.0" ixz="0.0" iyy="0.001" iyz="0.0" izz="0.001" />
    </inertial>
  </link>

  <joint name="camera_joint" type="fixed">
    <origin rpy="0 0 0" xyz="0.073 -0.011 0.084" />
    <parent link="base_link" />
    <child link="camera_link" />
  </joint>

  <link name="camera_link">
    <collision>
      <origin rpy="0 0 0" xyz="0.005 0.011 0.013" />
      <geometry>
        <box size="0.015 0.030 0.027" />
      </geometry>
    </collision>
  </link>

  <joint name="camera_rgb_joint" type="fixed">
    <origin rpy="0 0 0" xyz="0.003 0.011 0.009" />
    <parent link="camera_link" />
    <child link="camera_rgb_frame" />
  </joint>
  <link name="camera_rgb_frame" />

  <joint name="camera_rgb_optical_joint" type="fixed">
    <origin rpy="-1.57 0 -1.57" xyz="0 0 0" />
    <parent link="camera_rgb_frame" />
    <child link="camera_rgb_optical_frame" />
  </joint>
  <link name="camera_rgb_optical_frame" />

</robot>